35:
3.2
3.0
3.7
3.5
3.5
3.1
3.3
3.3
3.2
3.5
3.3
3.3
3.5
3.3
3.0
3.1
3.5
3.4
3.2
3.6
3.4
3.2
3.2
3.3
3.2
3.5
3.6
3.6
3.4
3.4
3.4
3.3
350:
3.9
3.9
3.7
3.6
4.0
3.5
3.9
3.9
3.6
3.9
3.8
3.9
3.9
3.9
3.8
3.8
4.0
3.6
4.0
4.1
4.0
4.1
3.7
3.9
4.0
3.8
3.9
3.9
4.0
4.1
3.7
3.7
3.9
3.8
3500:
3.8
3.9
4.1
4.1
3.6
3.8
3.5
4.0
3.3
3.8
3.7
3.8
3.6
3.8
3.9
3.7
4.0
3.6
3.8
4.0
3.6
3.8
3.8
3.3
3.8
3.7
3.9
3.6
3.9
3.6
3.7
3.7
3.7
3.6
3.6
3.7
3.9
3.7
3.6
3.7
4.1
3.8
3.8
3.9
3.7
3.9
3.7
4.0
3.8
4.2
3.7
3.6
3.7
3.7
3.8
3.9
3.8
3.7
3.7
3.7
3.9
3.7
4.0
3.7
3.5
3.7
3.5
3.8
3.8
3.8
3.5
3501:
3.5
3.6
3.5
3.4
3.6
3503:
3.2
3504:
3.2
3.2
3505:
2.9
2.5
2.5
2.5
2.8
2.6
2.7
2.2
2.5
2.5
2.5
2.7
2.8
3.0
2.6
2.7
2.6
2.6
2.7
2.6
2.7
2.5
2.6
2.4
2.5
2.5
2.9
2.3
2.4
2.5
3.1
2.3
2.2
2.4
2.2
2.8
2.7
2.7
2.9
2.7
2.6
2.5
2.4
2.5
2.7
3506:
3.4
3.3
3.5
3.2
3.3
3.0
3.3
3.4
3.3
3.1
3.3
3.4
3.3
3.3
3.2
3.3
3.4
3.5
3.3
3.6
3.3
3.5
3.6
3.4
3.6
3.3
3.3
3.5
3.7
3.6
3.3
3.5
2.8
3.7
3.7
3.5
3.5
3.2
3.2
3.7
3.1
3.2
3.4
3.4
3.4
3.2
3.4
3.5
3.4
2.8
3.4
3.5
3.5
3.3
3.7
3.4
3.4
3.2
3.3
3.2
3.1
3.1
3.4
3.4
3.2
3.4
3.2
3.2
3.4
3.4
3.5
3.7
3.5
3.3
3.5
3.6
3.7
3.5
3.4
3.6
3.3
3.3
3.5
3.3
3.7
3.5
3.3
3.5
3.1
3507:
3.0
3508:
3.7
3509:
4.0
4.2
3.9
3.8
4.0
4.1
3.9
4.1
4.2
4.1
4.0
3.6
3.9
4.2
3.8
4.1
4.2
3.9
3.8
4.3
4.1
3.9
3.8
4.0
3.9
3.9
3.9
4.0
4.0
3.9
4.0
3.9
4.2
4.0
4.2
3.9
4.0
4.1
3.5
4.0
3.9
3.9
4.4
3.7
3.7
4.2
3.8
4.1
4.1
4.0
4.1
4.1
3.6
3.8
4.0
3.9
4.1
4.0
4.3
4.1
3.9
4.0
4.1
3.9
3.9
3.7
3.5
4.5
4.0
4.0
4.1
4.0
4.0
3.9
351:
2.8
3.2
3.4
2.9
3510:
3.8
3.7
3.7
3.6
3.3
3.8
3.3
3.8
3.3
3.0
3.9
3.3
3.5
3.4
3.5
3.3
3.5
3.5
3.7
3.7
3.6
3.7
3.6
3.3
3.5
3.3
3.6
3.2
3.7
3.6
3.5
3.6
3.4
3.6
3.4
3.4
3.8
3.4
3.3
3.5
3.5
3.1
3.2
3.4
3.2
3.3
3.6
3.3
3.4
3.6
3.4
3.5
3.6
3.3
3.7
3.7
3.5
3.4
3.9
3.7
3.8
3.4
3.7
3.3
3.6
3.6
3.6
3.8
3.5
3.4
3.5
3.6
3.6
3.4
3.8
3.4
3.5
3.7
3.3
3.7
3.4
3.7
3.6
3.7
3.5
3.6
3.4
3.4
3.3
3.7
3.3
3.6
3.5
3.4
3.2
3.4
3.4
3.6
3.4
3.4
3.4
3.4
3.8
3.2
3511:
2.8
2.7
3512:
4.2
4.5
4.1
4.1
4.0
4.2
4.1
4.3
4.0
3.3
4.1
3513:
3.9
3.9
3.7
3.8
4.2
3.9
3.4
3.8
4.1
4.3
3.8
4.2
3.7
3.9
4.1
3.7
3.9
3.8
3.9
3.9
3.7
3.9
3.4
3.8
4.2
4.4
3.9
4.1
4.0
4.0
4.3
4.0
4.0
3.8
4.0
3.8
4.1
4.0
3.8
3.6
3.9
4.1
3.8
4.0
3.9
3.6
4.1
4.1
3.6
3.9
4.2
3.9
4.1
4.2
3.9
3.9
3.8
3.9
4.0
3.7
4.0
4.0
3.8
4.2
4.3
4.1
3.9
3.9
3.9
4.1
3.8
4.0
4.0
3.7
3.9
4.0
4.0
3.8
3.8
4.0
4.0
4.0
4.0
4.0
4.1
4.0
3.9
3.9
4.0
4.3
3.9
4.1
3.8
3.9
4.0
4.0
4.0
3.8
4.0
4.3
4.1
4.1
3.9
3.9
3.7
3.9
4.0
3.9
3.9
3514:
2.8
3.3
3.1
3.2
2.8
3.2
2.3
2.8
2.6
2.9
2.8
3.0
2.5
2.5
2.9
3.0
2.9
2.8
2.9
2.9
3.0
3.2
3.2
2.5
3515:
3.3
3.2
3.1
3.5
3.5
3.3
3.1
3.2
3.4
3.1
3.4
3.6
3.4
3.5
3.4
3.4
3.2
3.2
3.4
3.6
3.5
3.2
3.4
3.6
3.4
3.4
3.0
3.0
3.7
3.5
3.3
3.5
3.5
3.4
3.6
3.4
3.5
3.5
3.3
3.1
3.4
3.3
3.5
3.4
3.6
3.6
3.4
3.6
3516:
3.4
3.3
3.4
3.0
3517:
3.8
3.8
4.0
3.9
3.5
3.7
3.9
4.0
3.9
3.7
3.8
4.1
4.0
3.5
4.2
3.5
3.2
3.8
3518:
2.9
3.2
3519:
2.7
2.8
2.1
2.7
352:
2.6
3520:
3.4
3.1
3.3
3.2
3.1
3.4
2.9
3.5
3.3
3.3
3.1
3521:
4.1
4.1
3.9
4.2
4.0
3.8
4.0
4.1
3.9
3.6
3.9
4.2
3.8
4.2
3.9
3.9
3.9
4.2
3.8
3.9
4.2
4.0
3.9
4.0
4.0
4.0
3.6
4.2
4.2
4.2
3.9
3.7
4.1
3.8
4.0
4.3
3.9
4.1
3.6
3.9
4.0
3.8
4.0
3.8
4.1
4.0
3.9
3.9
3.6
3.9
4.0
4.1
4.2
3.8
3.6
4.1
4.0
3.7
3.9
3.7
4.2
3.9
4.0
4.1
3.9
3.9
4.3
3.8
4.0
3.9
4.0
3.9
4.0
3.9
3.9
4.2
3.9
3.8
4.2
3.8
4.0
4.1
3.8
3.6
4.3
4.0
4.0
3.8
3.7
4.1
4.0
4.1
4.1
4.2
3.9
3.9
4.1
3.7
3.9
3.7
4.0
4.2
4.0
3.8
3.7
3.6
3.9
4.0
3.9
4.1
4.1
4.3
4.1
4.2
4.0
4.0
3.6
3.9
3.6
4.3
4.1
3.9
3.9
3.7
3.6
3.8
3.6
3.8
4.2
4.1
3.8
3.6
3.7
4.0
4.1
4.0
3.8
4.0
3.7
3.8
4.1
3.9
3.8
4.3
4.0
3.7
3.6
4.0
3.8
3.8
4.0
4.0
3.8
3.3
3.8
4.1
4.2
3.8
3522:
3.3
3.2
3.0
3.0
3.0
3.0
3.0
3.1
3.2
3.4
3.1
3.3
3.2
2.9
2.8
3.3
3.2
2.7
3.4
3.2
2.8
3.2
3.2
3.0
3.1
3.0
3.4
3.0
3.2
3.0
2.7
3.2
3.2
3.0
3.0
3.2
3.0
3.2
3.0
3.3
3.1
2.8
3.7
3.4
3.2
3.2
3.3
3.2
3.3
2.8
3.4
2.9
3.1
3.2
3.1
3.2
2.9
3.3
2.9
3.0
3.1
3.5
3.1
3.2
3.2
3.3
3.1
3.1
3.1
3.2
2.9
3.5
3.3
3.1
3.1
3.1
3.5
3.5
3.0
3.5
2.7
3.3
3.0
3.2
3.2
3.2
3.1
3.2
3.1
3.3
3.0
3.4
3.1
3.0
2.9
3.1
3.2
3.1
2.6
3.4
3.0
3.3
2.9
3.4
2.9
3.1
3.0
3.5
3.1
3.0
3.3
3.6
3.2
2.8
3.3
2.9
3.0
3.2
3.1
3.0
3.1
3.4
2.7
3.2
2.9
3.2
3.1
3523:
4.4
4.5
4.2
4.6
4.3
4.3
4.4
4.2
4.1
4.6
4.5
4.2
4.2
4.3
4.5
4.2
4.1
4.5
4.1
4.3
4.0
4.3
4.2
4.6
4.4
4.2
4.3
4.4
4.7
4.4
4.3
4.4
4.1
4.5
4.5
4.2
4.4
4.3
4.2
4.3
4.4
3.8
4.3
4.3
4.1
4.6
4.3
4.1
4.1
4.2
4.3
4.1
4.4
4.2
4.1
4.6
4.4
4.5
4.4
4.3
4.2
4.4
4.0
4.6
4.3
4.4
4.4
4.3
4.3
4.3
4.1
4.1
4.2
4.2
4.5
3.9
4.2
4.1
4.3
4.3
4.0
4.2
4.3
4.3
4.5
4.4
4.1
4.2
4.5
4.3
4.4
4.4
4.1
4.1
3.9
4.3
4.3
4.4
4.4
4.2
4.4
4.1
4.3
4.1
4.0
4.3
4.4
4.1
4.1
4.3
4.3
4.2
4.2
4.3
4.0
4.4
4.1
4.4
4.1
4.4
4.1
3.8
4.3
3524:
3.8
4.0
3.8
4.1
3.9
4.0
3.8
3525:
3.0
3.0
2.8
3.2
3.2
2.8
3.0
3.1
3526:
3.4
3.7
3.4
3.5
3.5
2.5
3.5
3.3
2.9
3.3
3.4
3.6
3.4
3.7
3.1
3.5
3.9
3.9
3.0
3.8
3.4
3.3
3.3
3.5
3.2
3.5
3.6
3.6
3.1
3.4
3.6
3.5
3.5
3.4
3.1
3.4
3.5
3.4
3.3
3.5
3.8
3.5
3.6
3.5
3.3
3.4
3.3
3.6
3.5
3.7
3.6
3.3
3.2
3.6
3.3
3.4
3.3
3.3
2.9
353:
3.3
3.3
3.4
3.1
3.0
3.5
3.4
3.4
3.5
3.4
3.1
3.3
3.3
3.3
3.4
3.3
3.3
3.4
3.4
3.4
3.2
3.5
3.4
3.5
3.2
3.3
3.3
3.4
3.0
3.5
3.3
3.5
3.4
3.4
3.2
3.2
3.3
3.2
3.4
3.5
3.4
3.2
3.2
3.2
3.6
3.4
3.1
3.5
3.7
3.2
3.3
3.5
3.2
3.2
3.4
3.7
3.5
3.2
3.3
3.3
3.3
3.3
3.2
3.3
3.2
3.6
3.5
3.2
3.3
3.5
3.2
3.3
3.5
3.3
3.1
3.4
3.3
3.4
3.1
3.4
3.3
3.4
3.4
3.4
3.5
3.3
3.1
3.3
3.3
3.7
3.4
3.2
3.3
3.5
3.7
3.6
3.3
3.2
3.3
2.9
3.3
3.6
3.2
3.4
3.3
3.2
3.3
3.3
3.4
3.6
3.2
3.2
3.3
3.3
3.3
3.5
3.0
3.2
3.6
3.6
3.6
3.4
3.5
3.4
3.2
3.3
3.0
3.8
3.3
3.2
3.2
3.3
3.4
3.5
3.4
3.3
3.5
3.3
3.5
3.4
3.1
3.3
3.3
3.3
3.4
3.3
3.3
3.3
3.0
3.3
3.5
3.4
3.2
3.4
3.3
3.4
3.4
3.4
3.1
3.2
3.4
3.7
3.5
3.2
3.3
3.6
3.3
3.5
3.2
3.4
3.2
3.3
3.5
3.3
3.3
3.5
3.1
3.3
3.7
3.3
3.0
3.5
3.4
3.5
3.7
3.5
3.4
3.5
3.4
2.7
3.3
3.4
3.2
3.4
2.9
3.5
3.1
3.5
3.4
3.5
3.8
3.3
3.4
3.6
3.3
3.5
3.3
3.4
3.5
3.3
3.3
3.4
3.7
3.5
3.6
3.5
3.6
3.3
3.5
3.4
3.5
3.6
3.3
3.0
3.3
3.4
3.2
3.2
3.6
3.6
3.5
3.1
3.2
3.2
2.8
3.1
3.4
3.3
3.5
3.4
3.2
3.3
3.8
3.5
3.5
3.1
3.2
3.6
3.2
3.6
3.1
3.3
3.5
3.2
3.0
3.2
3.5
3.3
3.3
3.4
3.2
3.7
3.5
3.2
3.7
3.4
3.3
3.1
3.4
3.5
3.3
3.4
3.2
3.5
3.2
3.5
3.3
3.3
3.8
3.5
3.3
3.1
3.4
3.4
3.4
3.4
3.2
3.2
3.5
3.3
3.2
3.3
3.8
3.1
3.4
3.4
3.2
3.4
3.6
3.5
3.2
3.2
3.2
3.3
3.3
3.4
3.5
3.3
3.6
3.3
3.3
3.4
3.0
3.3
3.2
3.5
3.3
3.4
3.6
3.2
3.3
3.5
3.7
3530:
3.6
3.7
3.7
3.8
3.4
3.9
3.9
3.4
3.7
3.5
3.9
3.5
3.5
3.8
3.6
3.8
3.7
3.5
3.6
3.8
3.6
3.5
3.9
4.0
3.6
3.9
3.7
3.7
3.4
3.7
3.9
3.9
3.8
3.8
3.7
3.9
3531:
3.4
3.3
3.4
3.7
3.7
3.4
3.3
3.4
3532:
3.4
3.8
3.4
3.8
3.9
3.7
3.5
2.8
3.8
3.4
3.7
3.6
3.5
3.4
3.7
3.3
3.8
3.4
3.5
3.7
3.4
3.8
3.2
3.6
3.9
3533:
3.8
3.5
3.4
3.5
3.2
3.3
3.3
3.5
3.6
3.5
3.7
3.6
3.5
3.4
3.5
3.7
3.5
3.4
3.5
3.6
3.3
3.5
3.5
3.4
3.6
3.4
3.4
3.6
3.5
3.4
3.3
3.6
3534:
3.2
3.3
3.4
3.6
3.6
3.8
3.3
3.3
3.2
2.9
3.5
2.9
3.0
3.5
3.4
3.3
3.5
3.6
3.5
3.3
3.5
3.4
3.4
3.4
3535:
3.6
3.5
3.3
3.4
3.3
3.5
3.4
2.8
3.9
3.5
3.1
3.3
3.3
3.3
3.5
3.6
3.8
3.4
3.3
3.4
3.2
3.5
3.3
3.2
3.1
3.6
3.5
3.6
3.4
3.7
2.9
3.5
3.6
3.5
3.5
3.1
3.2
3.5
3.1
3.2
3.2
3.6
3.4
3.2
3.3
3.7
2.9
3.4
3.3
3.4
3.3
3.4
3.1
3.2
3.3
3.6
3.2
3.2
3.4
3.2
3.4
3.1
2.9
3.4
3.5
3.5
3.3
3.2
3.7
3.3
3.4
3.3
3.3
3.3
3.2
3.6
3.4
3.1
3.5
3.5
3.3
3.5
3.3
3.4
3.3
3.4
3.1
3.2
3.3
3.6
3.6
3.3
3.6
3.2
3.7
3.4
3.2
3.3
3.4
3.5
3.2
3.2
3.3
3.2
3.3
3.6
3.2
3.4
3.1
3.3
3.4
3.3
3.2
3.3
3.5
3.6
3.2
3.4
3.3
3536:
2.5
2.3
2.9
2.7
2.7
2.6
2.6
3537:
2.8
3.2
2.9
3.2
3538:
3.8
3.6
3.8
4.0
4.0
3.4
3.6
3.9
3.7
3.8
3.7
4.0
3.6
4.0
3.4
3.9
3.4
3.5
4.0
3.8
3.6
3.2
3.5
4.0
3.7
3.7
3.6
3.9
4.0
3.7
3.8
3.7
3.7
3.6
3.7
3.8
3.9
3.7
3.8
3.6
3.7
3.7
4.2
3.8
3.8
3.6
3.7
3.6
3.7
4.0
3.7
3.7
3.6
3.7
3.8
4.0
3.6
3.5
3.6
4.0
3.8
4.0
3.7
3.8
3.9
3.5
4.0
3.9
3.9
3.8
3.7
4.0
3.9
3.7
3.4
3.9
3.5
4.0
3.7
3.6
3.6
3.4
3.7
3.8
4.0
3.7
3.8
3.9
4.0
3.7
3.6
3.7
3.7
3.7
3.9
3.6
3.8
3.6
3.8
4.0
3.8
3.8
3.6
3.7
3.6
3.9
3.7
3.8
3.6
3.5
3.8
3.2
3.8
3.6
3.8
3.7
3.6
3.7
3.8
3.8
3.8
3.7
3.6
3.7
3.7
3.7
4.0
3.6
4.1
3.5
3.5
4.0
3.7
3.8
3.8
3.9
3.9
3.8
3.4
3.8
3.6
3.7
3.8
3.7
3.9
3.9
3.8
3.8
4.1
3.9
3.6
3.7
3.4
3.8
3.8
3.8
3.8
3.7
3.8
3.6
3.8
4.0
4.1
3.7
3.5
3.8
3.6
3.8
3.8
3.7
3.9
3.7
3.8
3.4
3.9
3.8
3.5
3.9
3.9
3.7
3.9
3.8
3.9
3.9
3.8
3.7
4.0
3.5
3.6
4.0
3.6
3.6
4.0
3.6
3.6
3.7
3.8
3.7
3.6
3.6
3.8
3.9
3.6
3.9
3.7
3.5
3.7
3.7
3.5
4.0
3.6
3.7
3.4
3.9
4.0
4.1
3.5
3.5
3.5
3.7
4.0
3.9
3.7
4.0
3.5
3.3
3.7
3.6
3.5
3.5
3.9
3.2
3.8
3.7
3.8
3.9
3.4
4.0
3.7
3.7
3.9
3.7
3.7
3.5
3.7
3.6
3.6
3.4
3.7
3.8
3.5
3.4
3.8
3.6
4.0
3.8
3.4
3.9
4.0
3.8
3.7
3.7
3.9
3.7
3.8
3.9
3.6
3.8
3.9
3.7
3.6
3.5
3.6
3.7
3.6
3.6
3.4
3.6
3.6
3.7
3.6
4.2
3.8
3.8
3.7
3.8
3.8
3.8
3.6
3.7
3.7
3.8
3.9
3.7
3.9
3.8
4.0
3.7
3.5
3.6
3.8
3.7
3.8
3.8
3.7
4.2
3.8
3.6
3.9
3.4
3.6
3.8
3.9
3.8
3.7
3.8
3.8
3.9
3.6
3.7
3.9
3.6
3.6
3.7
3.8
3.6
3.6
3.7
3.9
3.4
4.0
3.7
4.0
3.8
4.0
3.8
4.0
3.6
3.9
3.9
3.8
3.7
4.1
3.6
3.8
4.1
3.6
3.8
3.7
3.9
3.9
3.8
3.8
3.7
3.5
3.6
3.6
3.7
3.7
3.6
3.6
3.8
3.8
3.5
3.7
4.0
3.8
3.8
3.7
3.7
4.0
3.6
3.8
0.98
